{
  "code": "fr",
  "ab_newName": "Nouveau nom :",
  "ab_delProj": "Suppimer le projet",
  "ab_archProj": "Archiver le projet",
  "ab_impArch": "Importer une archive",
  "ab_editProj": "&Eacute;diter le projet",
  "ab_prev": "Visualiser",
  "ab_addView": "Ajouter une vue",
  "ab_delView": "Supprimer la vue",
  "ab_renView": "Renommer la vue",
  "ab_addPage": "Ajouter une page",
  "ab_delPage": "Supprimer la page",
  "ab_renPage": "Renommer la page",
  "ab_prevFullProj": "Visualiser tout le projet",
  "gen_del": "Supprimer",
  "gen_arch": "Archiver",
  "gen_yes": "Oui",
  "gen_no": "Non",
  "gen_confirm": "Confirmer",
  "gen_cancel": "Annuler",
  "gen_proj": "Projet",
  "gen_projs": "Projets",
  "gen_edit": "&Eacute;diter",
  "gen_languages": "Langues",
  "gen_sitemap": "Plan de site",
  "gen_set": "Param&egrave;tres",
  "gen_theme": "Th&egrave;mes",
  "gen_medias": "Médias",
  "gen_pub": "Publier",
  "gen_pages": "Pages",
  "gen_views": "Vues",
  "set_startpage": "Page de d&eacute;marrage",
  "sm_changelang": "Voir et &eacute;diter en",
  "sm_addsection": "Ajouter une section",
  "sm_pname": "Nom de la page",
  "sm_loclabel": "Nom localis&eacute;",
  "sm_updateinfo": "Peut &ecirc;tre mis &agrave; jour dans les propri&eacute;t&eacute;s de page",
  "sm_locsectionlabel": "Nom localis&eacute;",
  "sm_rmsectioninfo": "Une section doit &ecirc;tre vide pour &ecirc;tre supprim&eacute;e",
  "sm_rmsection": "Supprimer cette section",
  "ls_curlanguages": "Langues actuelles",
  "ls_chooselanguages": "Saisir une langue &agrave; ajouter",
  "ls_addlanguages": "Ajouter cette langue",
  "pub_loc": "Publier sur cet ordinateur",
  "pub_locpath": "Chemin du dossier de publication",
  "pub_locpathchange": "Changer le chemin de publication",
  "pub_now": "Publier maintenant",
  "pub_where": "Choisir un emplacement de publication",  
  "ctrl_author": "Auteur (Author)",
  "ctrl_desc": "Description",
  "ctrl_key": "Mot-clés (keywords) séparés par une virgule",
  "ctrl_tags": "Partie insérée dans le Header de la page, doit contenir seulement des tags (script, meta, style...)",
  "ctrl_edit": "&Eacute;diter la vue",
  "ctrl_rm": "Retirer la vue",
  "ctrl_drag": "D&eacute;poser une vue ici",
  "ctrl_draginfo": "D&eacute;poser une vue dans la page depuis le menu lat&eacute;ral",
  "ctrl_pagetype": "Type de page",
  "ctrl_locpagename": "Nom localis&eacute; de la page",
  "ctrl_pagenameinfo1": "Le nom de page est le nom tehnique de la page, visible dans son lien html. <br> Le nom localis&eacute; sera le nom utilis&eacute; dans les menus et les onglets du navigateur.<br> Dans votre cas, le lien sera <i>http://votreDomaine/",
  "ctrl_pagenameinfo2": "</i> mais le nom pr&eacute;sent dans l'onglet du navigateur et dans les menus sera ",
  "gen_fisrtview": "Ma vue principale",
  "gen_mainpage": "Page principale",
  "gen_addpagename": "Nouvelle Page",
  "gen_componentsCatalog": "Composants",
  "cl_title": "Composants",
  "compcat_current": "Liste des composants disponibles pour ce projet",
  "compcat_header": "Les Ent&ecirc;tes",
  "compcat_txt": "Les textes",
  "compcat_rm": "Retirer du projet",
  "compcat_add": "Rendre disponible pour ce projet",
  "compcat_ly": "Mise en page",
  "pop_add_new": "Ajouter un nouveau projet",
  "pop_add_about": "Merci de saisir un nom pour ce projet",
  "pop_add_valid": "Ce nom est parfait !",
  "pop_add_exist": "Oups ! Ce nom de projet existe déjà.",
  "pop_add_car": "Le nom ne peut pas contenir de caractère spécial, accent, espace ou majuscule et doit commencer par une lettre.",
  "pop_add_car2": "pourrait convenir.",
  "gen_create": "Cr&eacute;er",
  "pop_placeholder": "Nom du projet",
  "pop_welcome": "Bonjour !",
  "pop_welcome_about" : "Afin de commencer, vous devez cr&eacute;er votre premier projet, donnez lui un nom !",
  "the_loading": "Chargement du th&egrave;me en cours...",
  "the_about": "Voici les th&egrave;mes... blabla, t&eacute;l&eacute;charger un th&egrave;me pour pouvoir l'utiliser, blabla, supprimer un thème que vous n'utilisez pas pour gagner de la place, blabla.",
  "the_no": "Th&egrave;me non disponibles, v&eacute;rifiez votre connection &agrave; internet.",
  "the_rt": "essayer à nouveau",
  "the_default" : "Th&egrave;me par d&eacute;faut",
  "the_title_default": "Th&egrave;me s&eacute;lectionn&eacute;",
  "the_title_all": "Tous les th&egrave;mes",
  "the_current": "Th&egrave;me actuel",
  "the_use": "Utiliser ce th&egrave;me",
  "proplogo_add": "Ajouter un logo",
  "proplogo_current": "Logo actuel",
  "proplogo_find": "Trouver un nouveau logo sur cet ordinateur",
  "proplogo_pos": "Position",
  "proplogo_sz": "Taille",
  "proplogo_prev": "Trouver une image dans le catalogue de visuels",
  "gen_size_no": "Néant",
  "gen_size_def": "Par défaut",
  "gen_size_vsm": "Très petit",
  "gen_size_sm": "Petit",
  "gen_size_med": "Moyen",
  "gen_size_lg": "Grand",
  "gen_back": "Arri&egrave;re plan",
  "back_trs": "Transparent",
  "back_trs_li": "Transparent clair",
  "back_trs_dk": "Transparent sombre",
  "back_txt_st": "Text gras",
  "back_pos_right": "Droite (grand et moyen)",
  "back_pos_left": "Gauche",
  "back_pos_center": "Centre",
  "gen_rounded": "Angles arrondis",
  "gen_rad": "Radius",
  "gen_uppercase": "En majuscules",
  "gen_hollow": "Effet creux",
  "gen_set_lang": "Configurer en",
  "but_ord": "Ordre des boutons (glisser pour changer)",
  "img_ord": "Ordre des images (glisser pour changer)",
  "snd_ord": "Ordre des sons (glisser pour changer)",
  "gen_txt": "Texte",
  "but_link": "Lien (apparence)",
  "but_img": "Bouton image",
  "but_img_current": "Image actuelle",
  "but_file_current": "Fichier actuel",
  "but_file_new": "Trouver un nouveau fichier sur cet ordinateur",
  "prop_choose_file": "Choisir dans votre catalogue",
  "but_img_new": "Trouver une nouvelle image sur cet ordinateur",
  "prop_but_add": "Ajouter un bouton",
  "prop_sound_add": "Ajouter un son",
  "section_new": "nouvelle section",
  "gen_language": "Langue",
  "gen_text": "Texte",
  "prop_color_theme": "Couleur du th&egrave;me",
  "prop_txt_align": "Alignement",
  "prop_h_size": "Taille du titre",
  "prop_h_space": "Espacement intérieur",
  "prop_h_margintop": "Marge haute",
  "prop_h_marginbottom": "Marge basse",
  "prop_choose_cat": "Choisir dans votre catalogue d'images",
  "prop_img_cur": "Image actuelle",
  "prop_choose_icn": "Choisir une icone du th&egrave;me",
  "prop_text_col": "Nombre de colonne(s)",
  "prop_img_add": "Ajouter une image",
  "prop_file_add": "Ajouter un fichier",
  "prop_img_cap": "Commentaire",
  "prop_vid_w": "&Eacute;cran large",
  "prop_vid_v": "Vertical, t&eacute;l&eacute;phone",
  "prop_vid_pa": "Panorama",
  "prop_vid_sq": "Carr&eacute;",
  "prop_vid_choose": "Ratio",
  "prop_vid_emded": "Saisir le code (iframe) &agrave; int&eacute;grer (embed) fourni par votre plateforme.",
  "prop_soc_add": "Ajouter un R&eacute;seau",
  "prop_soc_rm": "Retirer le r&eacute;seau",
  "prop_soc_link": "Lien...",
  "prop_soc_current": "R&eacute;seaux actuels (glisser pour r&eacute;ordonner)",
  "prop_soc_choose": "Choisir...",
  "prop_back_find": "Trouver une nouvelle image sur cet ordinateur",
  "prop_back_pat": "Trouver un motif &agrave; partir du th&egrave;me",
  "prop_back_timg": "Trouver une image &agrave; partir du th&egrave;me",
  "gen_op": "Opacit&eacute;",
  "prop_back_dl": "Tonalit&eacute;",
  "prop_back_ori": "Originale",
  "prop_back_dark": "Plus sombre",
  "prop_back_lig": "Plus clair",
  "prop_back_color": "Couleur du fond",
  "prop_back_img": "Image de fond",
  "prop_back_rm": "Retirer l'image",
  "prop_back_full": "Conteneur plein",
  "prop_back_rp": "R&eacute;p&eacute;tition",
  "prop_back_h": "Hauteur mininale",
  "prop_back_lh": "Hauteur du logo",
  "prop_links_add": "Ajouter un &eacute;l&eacute;ment",
  "prop_links_lab": "&Eacute;l&eacute;ments (glisser pour ordonner)",
  "prop_links_name": "Nom",
  "prop_links_link": "Lien",
  "prop_links_change": "Modifier",
  "prop_links_logo": "Logo",
  "prop_links_int": "Choirir une page",
  "prop_links_em": "Saisir un courriel",
  "prop_links_pho": "Saisir un num&eacute;ro de t&eacute;l&eacute;phone",
  "prop_links_ex": "Saisir un lien externe",
  "prop_links_vw": "Choisir une vue",
  "prop_actions_int": "Ouvrir une autre page",
  "prop_actions_em": "Envoyer un courriel",
  "prop_actions_pho": "Lier &agrave; un num&eacute;ro de t&eacute;l&eacute;pone",
  "prop_actions_ex": "Ouvrir un lien externe",
  "prop_actions_vw": "Ouvrir une vue",
  "prop_actions_noac": "Aucune action",
  "prop_actions_add": "Ajouter une action au clique",
  "prop_actions_vsel": "Aucune vue s&eacute;lectionn&eacute;e",
  "prop_actions_mod": "Panneau modale",
  "prop_actions_full": "Panneau plein &eacute;cran",
  "prop_actions_pap": "Panneau surgissant (haut)",
  "prop_actions_sand": "Panneau lat&eacute;ral sandwitch",
  "prop_actions_eff": "Mode d'affichage",
  "prop_actions_nop": "Aucune page s&eacute;lectionn&eacute;e",
  "prop_prop_img": "Images & logos",
  "prop_prop_img_cur": "Actuel",
  "prop_prop_img_cat": "Catalogue",
  "prop_prop_img_t": "images du theme",
  "prop_prop_img_lm": "Logos du theme",
  "prop_prop_img_find": "Trouver sur cet ordinateur",
  "pro_cus_link": "Choisir une action",
  "cat_empty": "Votre catalogue est vide. Cliquer + pour ajouter des images et des vid&eacute;os.",
  "cat_del": "Supprimer ?",
  "newview": "Nouvelle vue",
  "prop_color_rmColor": "retirer la couleur actuelle",
  "download_theme": "Chargement du th&egrave;me en cours",
  "update_theme": "Mise &agrave; jour du th&egrave;me courant...",
  "rest_theme": "R&eacute;cup&eacute;ration du th&egrave;me courant...",
  "theme_blue": "Bleu",
  "theme_red": "Rouge",
  "theme_orange": "Orange",
  "theme_green": "Vert",
  "theme_grey": "Gris",
  "theme_purple": "Violet",
  "theme_yellow": "Jaune",
  "theme_pink": "Rose",
  "action_arch": "Cr&eacute;ation de votre archive en cours...",
  "action_importAr": "Import d'une archive en cours...",
  "fav_sname": "Nom du site web (par défaut le nom du projet)",
  "fav_domain": "Nom de domaine du site (saisir avec http:// ou https://). Nécessaire pour générer un plan de site pour les moteurs de recherche.",
  "fav_browse": "Trouver sur cet ordinateur",
  "fav_title": "Favicons (format PNG uniquement)",
  "create_lang": "Langue du projet",
  "create_lang_no": "Langue non valide !",
  "acb_enter_name": "Saisir un nom:",
  "acb_new_name": "Nouveau nom:",
  "acb_wrong_name": "Le nom ne doit pas contenir de caractère spacial ou d'accent.",
  "acb_wrong_name2": "pourrait convenir.",
  "img_action": "Ajouter une action au clique sur l'image:",
  "img_no_action": "Pas d'action",
  "img_reveal_action": "Agrandir en plein écran",
  "settings_view": "Paramètres de la vue",
  "action_close": "Fermer",
  "comp_type_nav": "Navigation",
  "comp_type_testi": "Témoignage",
  "comp_type_footer": "Pied de page",
  "comp_type_form": "Formulaire",
  "comp_type_map": "Plan",
  "comp_type_img": "Image",
  "comp_type_vid": "Video",
  "comp_type_card": "Fiche",
  "comp_type_pres": "Présentation",
  "comp_type_audio": "Audio",
  "comp_type_meters": "Mesures",
  "page_set_gen": "Paramètres généraux",
  "page_set_back": "Arrière plan",
  "page_set_script": "Scripts",
  "page_set_full": "Contenu toujours en pleine largeur",
  "page_set_script_af": "Script exécuté avant le chargement de la page",
  "page_set_script_be": "Script exécuté après le chargement de la page",
  "page_set_script_load": "Script exécuté après le chargement complet de tous les éléments de la page",
  "iap_am_1": "Achat en cours...",
  "iap_am_2": "Restauration en cours...",
  "iap_update": "Évoluez vers Sled<i>Plus</i> !",
  "iap_restore": "Restaurer mes achats",
  "iap_close": "Fermer",
  "iap_loading": "Chargement des données...",
  "iap_buynow": "Acheter maintenant",
  "iap_page_go": "Aller plus loin avec Sled<i>Plus</i>.",
  "iap_page_learn": "En savoir plus.",
  "iap_page_mutli_h2": "Site Web multi-langages",
  "iap_page_mutli_p": "Localisez vos sites en autant de langues que désiré. Tous les textes, mais aussi certains visuels, liens et paramètres peuvent être adaptés à la langue. Sled génère une page d’accueil pemettant au visiteur de choisir sa langue. Depuis un moteur de recherche, la structure optimisée de votre site conduit l'utilisateur sur la version correspondant à sa langue.",
  "iap_page_smap_h2": "Optimisez votre plan de site.",
  "iap_page_smap_p": "Créez un plan de site complet, avec sections et sous-sections. Il sera directement utilisé pour générer automatiquement des menus dans certains composants (menu, footer...).",
  "iap_page_arch_h2": "Archivez vos projets.",
  "iap_page_arch_p": "Exportez et importez vos projets sous forme d'archive Sled. Une bonne façon de sauvegarder ou de partager votre travail.",
  "iap_page_comp_h2": "Plus de composants.",
  "iap_page_comp_p": "Améliorez votre créativité avec plus de composants : des plans, témoignages (testimonials), formulaires, présentations et plus...",
  "iap_page_theme_h2": "Plus de thèmes",
  "iap_page_theme_p": "Un éventail de couleurs encore plus large.",
  "iap_page_more_h2": "Et encore plus...",
  "iap_page_more_p1": "Ajoutez des scripts à vos pages (qui s'exécutent avant et après chargement de la page).",
  "iap_page_more_p2": "Ajoutez un favicon à vos pages (adapté aux différentes résolutions d'écrans).",
  "iap_page_more_p3": "Injectez vos propres balises dans le header de la page (script, meta, style...)",
  "iap_page_more_p4": "Générez un fichier sitemap.xml à la racine de votre projet, pour les moteurs de recherche.",
  "iap_success_thx": "Merci !",
  "iap_success_p": "Vous venez d'acheter ou de restaurer avec succès Sled<i>Plus</i>.",
  "menu_prop_add": "Ajouter un menu",
  "menu_prop_title": "Titre",
  "menu_prop_sticky": "Fixe",
  "menu_prop_shrink": "Plus petit au scroll",
  "menu_prop_back": "Fond",
  "menu_prop_backTrans": "Transparent",
  "menu_prop_backlight": "Transparent claire",
  "menu_prop_backdark": "Transparent sombre",
  "menu_prop_backdef": "Par défaut",
  "new_proj": "Nouveau projet",
  "comp_rm": "Supprimer ?",
  "prop_pan_title": "Propriétés",
  "menu_at_top": "En haut",
  "menu_at_bottom": "En bas",
  "menu_prop_pos": "Position",
  "prop_sitemap_toggle": "Déplier par défault les sections de premier niveau",
  "prop_sitemap_set": "Cocher les éléments de premier niveau à ne pas afficher:",
  "empty_txt": "Texte ici",
  "start_pop1": "Pour bien commencer, regardez",
  "start_pop2": "le démarrage rapide.",
  "start_pop3": "fr",
  "start_pop4": "Merci d'accepter les", 
  "start_pop5": "conditions d'utisation.",
  "iap_about_learn": "Visitez le site à propos de SledPlus.",
  "gen_language_set": "Paramètres de la page de choix des langues (à saisir dans une seule langue)",
  "sdn_prop_vs_name": "Nom visible",
  "sdn_prop_get": "Trouver un son sur cet ordinateur",
  "sdn_prop_getcat": "Trouver un son dans votre catalogue",
  "prop_img_desc": "Description visible en cliquant sur l'image",
  "up_dial_title": "Sled a été mis à jour !",
  "up_dial_but": "Fermer",
  "up_dial_1": "Correction d'un problème d'encodage de certains caractères, pouvant empêcher un projet de s'ouvrir.",
  "up_dial_2": "<span style='color: orange;'>[SledPlus] Nouveau composant patchwork d'images.</span> Permet d’afficher une série d’images en grille. En passant la souris au dessus d’une image le titre apparait. En cliquant sur l’image, celle-ci s’agrandit et une descripton optionnelle apparait.",
  "up_dial_3": "<span style='color: orange;'>Nouveau composant Image Lien</span>: Une image avec un titre et un sous titre qui joue aussi le rôle de lien.",
  "up_dial_4": "Correction d’un problème avec les liens et la page principale (lien cassé). <span style='color: red;'>Vous devez publier à nouveau votre site pour corriger le problème.</span>",
  "up_dial_6": "Correction de problèmes mineurs de styles.",
  "up_dial_7": "Possibilité d'éditer la description et les mots clefs de la page de choix des langues (Sled<i>Plus</i>). ",
  "up_dial_9": "Un fichier archive (.sled) peut être double cliqué depuis le Finder.",
  "up_dial_8": "À propos des dernières mises à jour",
  "up_dial_10": "Correction d'un problème pouvant empêcher de démarrage de l'application (écran blanc) avec certaines configurations de langues.",
  "prop_cus_path": "Chemin à utiliser dans votre HTML ou CSS",
  "prop_cus_about": "Ces fichiers (images, pdf) sont attachés au composant. Vous pouvez les utiliser dans votre HTML ou votre CSS via le lien fourni."
}
  